{
    "uid": "BD_PY_DTYPES_NUM",
    "TRN_EVL_ID": "IDF",
    "NETWORK": "COMMERCIAL",
    "KSATs": [
        [
            "K0111",
            "B"
        ],
        [
            "K0712",
            "B"
        ],
        [
            "K0716",
            "C"
        ],
        [
            "S0023",
            "3"
        ],
        [
            "S0029",
            "3"
        ],
        [
            "S0030",
            "3"
        ]
    ],
    "course": "IDF",
    "module": "Python",
    "topic": "data_types",
    "subject": "numbers",
    "lecture_time": 30,
    "perf_demo_time": 60,
    "references": [],
    "lesson_objectives": [
        {
            "description": "Distinguish between different number prefixes",
            "proficiency_level": "B",
            "KSATs": [
                "K0008"
            ],
            "MSBs": []
        },
        {
            "description": "Distinguish between different number types",
            "proficiency_level": "B",
            "KSATs": [
                "K0008"
            ],
            "MSBs": []
        },
        {
            "description": "Describe the Boolean data type",
            "proficiency_level": "B",
            "KSATs": [
                "K0008"
            ],
            "MSBs": []
        },
        {
            "description": "Employ arithmetic operators",
            "proficiency_level": "C",
            "KSATs": [
                "K0716"
            ],
            "MSBs": [
                {
                    "description": "Differentiate arithmetic operators",
                    "proficiency_level": "C",
                    "KSATs": [
                        "K0716"
                    ]
                },
                {
                    "description": "Given a scenario, predict the resulting type of a math operation with different operand types",
                    "proficiency_level": "C",
                    "KSATs": [
                        "K0716"
                    ]
                },
                {
                    "description": "Differentiate bitwise operators",
                    "proficiency_level": "B",
                    "KSATs": [
                        "K0111"
                    ]
                },
                {
                    "description": "Describe the order of operations",
                    "proficiency_level": "B",
                    "KSATs": [
                        "K0716"
                    ]
                }
            ]
        },
        {
            "description": "Employ type conversion",
            "proficiency_level": "C",
            "KSATs": [
                "K0712"
            ],
            "MSBs": []
        }
    ],
    "performance_objectives": [
        {
            "description": "Use arithmetic operators to modify Python program functionality",
            "KSATs": [
                "S0029"
            ]
        },
        {
            "description": "Use bitwise operators to modify Python program functionality",
            "KSATs": [
                "S0030"
            ]
        },
        {
            "description": "Use type conversion to modify Python program functionality",
            "KSATs": [
                "S0023"
            ]
        }
    ],
    "workroles": [
        "basic-dev"
    ]
}